{
    "code": 0,
    "msg": "",
    "more_info": "",
    "data": {
        "activity_heo_promotion": {
            "activity_id": "14221633053369601281",
            "activity_name": "活动名称1",
            "state": 1,
            "start_time": "2020-03-23T13:55:00+07:00",
            "activity_name_detail": "活动名称1",
            "activity_type_id": "2",
            "sponsor_uid": "5574239828255440897",
            "amount_show": 10000,
            "amount_actual": 6000,
            "sponsor_money_total": 120000,
            "sponsor_money_balance": 42000,
            "product_ids": "12419737548004084350",
            "card_title": "Join Up Now!",
            "card_content": "Gotongroyong Facing Critical Disease available for FREE!!!*",
            "popup_subtitle": "Free Gotongroyong Facing Critical Diseases",
            "popup_content": "1. This promotion event only available for 2 months, and 200.000 members\r\n\r\n2. Only the first member registered will get the free Gotongroyong Facing Critical Diseases membership, with Rp 6.000 GTRY balance\r\n\r\n3. Gotongroyong program is purely donation program, it has no conflict with insurance."
        },
        "act": true
    },
    "_metadata": {}
}