{
    "code": 4011,
    "msg": "",
    "more_info": "",
    "data": [{
        "created_at": "2018-11-27T16:23:16+07:00",
        "updated_at": "2018-11-27T16:28:49+07:00",
        "name": "Banner Des 2018",
        "image": "{\"image\":\"https:\\/\\/res.cloudinary.com\\/dqgl4hkkx\\/image\\/upload\\/v1543310596\\/j6giep9e6el04a5nw9b6.png\",\"thumb\":\"https:\\/\\/res.cloudinary.com\\/dqgl4hkkx\\/image\\/upload\\/c_thumb,h_80,w_80\\/j6giep9e6el04a5nw9b6.png\"}",
        "url": "https://pedulisehat.blog/2018/10/10/panduan-dasar-donatur/",
        "weight": 9,
        "state": 1,
        "active": 1
    }, {
        "created_at": "2018-11-27T16:28:26+07:00",
        "updated_at": "2018-11-27T16:28:54+07:00",
        "name": "Banner Gopay",
        "image": "{\"image\":\"https:\\/\\/res.cloudinary.com\\/dqgl4hkkx\\/image\\/upload\\/v1543310905\\/owej0gtdrpnh68tele0u.png\",\"thumb\":\"https:\\/\\/res.cloudinary.com\\/dqgl4hkkx\\/image\\/upload\\/c_thumb,h_80,w_80\\/owej0gtdrpnh68tele0u.png\"}",
        "url": "https://pedulisehat.blog/2018/11/27/semakin-mudah-berdonasi-dengan-go-pay/",
        "weight": 8,
        "state": 1,
        "active": 1
    }],
    "_metadata": {}
}