{
    "code": 0,
    "msg": "",
    "data": {
        "created_at": "2018-08-15T12:16:19Z",
        "updated_at": "2018-08-15T12:25:43Z",
        "project_id": "14221049989731188844",
        "name": "dddd",
        "id_card": "23233333",
        "card_images": "[{\"name\":\"13a4c21b-2d1e-4948-8e7c-fcc6ff2972f6.jpg\",\"image\":\"https://res.cloudinary.com/dqgl4hkkx/image/upload/13a4c21b-2d1e-4948-8e7c-fcc6ff2972f6.jpg\",\"thumb\":\"https://res.cloudinary.com/dqgl4hkkx/image/upload/w_340,h_340,c_fill,f_auto/13a4c21b-2d1e-4948-8e7c-fcc6ff2972f6.jpg\"}]",
        "disease": "aaaaaaaaa",
        "disease_images": "[{\"name\":\"13a4c21b-2d1e-4948-8e7c-fcc6ff2972f6.jpg\",\"image\":\"https://res.cloudinary.com/dqgl4hkkx/image/upload/q_auto/v1534850297/wp9ixwmwucsleutewx5j.jpg\",\"thumb\":\"https://res.cloudinary.com/dqgl4hkkx/image/upload/w_340,h_340,c_fill,f_auto/13a4c21b-2d1e-4948-8e7c-fcc6ff2972f6.jpg\"}]",
        "state": 1
    },
    "_metadata": {}
}