{
    "code": 0,
    "msg": "",
    "more_info": "",
    "data": {
        "accessToken": "1f634dc15be4ad529745188200200031185687c2c23220d6",
        "expiresIn": 7200,
        "tokenExpires": 1559652193,
        "refreshToken": "bafb4db75baead4a97881825007a00de18374d587ee115d1",
        "uid": "5574239828255440920",
        "signature": "bf817e0de99c0e305a519aa24d970f5924e0bbd1"
    },
    "_metadata": {}
}