{
    "code": 0,
    "msg": "",
    "more_info": "",
    "data": [{
        "created_at": "2020-07-06T13:10:02.870142+07:00",
        "user_name": "JESUS Bless",
        "avatar": "https://static.pedulisehat.id/img/avatar/avatar-90.png",
        "user_type": 0,
        "money": 5000,
        "comment": "",
        "order_id": "16527831430594932018",
        "activity_type": "",
        "donor": "",
        "corner_mark": ""
    }, {
        "created_at": "2020-07-06T13:06:31.167641+07:00",
        "user_name": "Anonymity",
        "avatar": "https://res.cloudinary.com/dqgl4hkkx/image/authenticated/s--wRvdL6ck--/v1553238007/ls5l9af2db6dhehxv1kl.png",
        "user_type": 0,
        "money": 10000,
        "comment": "bismillah\nsyafakallah Dwen..aamiin",
        "order_id": "16527831430594931952",
        "activity_type": "",
        "donor": "",
        "corner_mark": ""
    }, {
        "created_at": "2020-07-06T13:03:45.242455+07:00",
        "user_name": "Anonymity",
        "avatar": "https://res.cloudinary.com/dqgl4hkkx/image/authenticated/s--wRvdL6ck--/v1553238007/ls5l9af2db6dhehxv1kl.png",
        "user_type": 0,
        "money": 1000,
        "comment": "",
        "order_id": "16527831430594931900",
        "activity_type": "",
        "donor": "",
        "corner_mark": ""
    }, {
        "created_at": "2020-07-06T13:01:37.881351+07:00",
        "user_name": "GuNTuR",
        "avatar": "https://res.cloudinary.com/dqgl4hkkx/image/upload/v1569458918/avatar/lvxdglcias6o4cqqga90.webp",
        "user_type": 0,
        "money": 10000,
        "comment": "",
        "order_id": "16527831430594931896",
        "activity_type": "",
        "donor": "",
        "corner_mark": ""
    }, {
        "created_at": "2020-07-06T12:52:04.945661+07:00",
        "user_name": "Anonymity",
        "avatar": "https://res.cloudinary.com/dqgl4hkkx/image/authenticated/s--wRvdL6ck--/v1553238007/ls5l9af2db6dhehxv1kl.png",
        "user_type": 0,
        "money": 3000,
        "comment": "",
        "order_id": "16527831430594931679",
        "activity_type": "",
        "donor": "",
        "corner_mark": ""
    }, {
        "created_at": "2020-07-06T12:49:20.099181+07:00",
        "user_name": "Anonymity",
        "avatar": "https://res.cloudinary.com/dqgl4hkkx/image/authenticated/s--wRvdL6ck--/v1553238007/ls5l9af2db6dhehxv1kl.png",
        "user_type": 0,
        "money": 200000,
        "comment": "",
        "order_id": "16527831430594931523",
        "activity_type": "",
        "donor": "",
        "corner_mark": ""
    }, {
        "created_at": "2020-07-06T12:44:02.10903+07:00",
        "user_name": "Anonymity",
        "avatar": "https://res.cloudinary.com/dqgl4hkkx/image/authenticated/s--wRvdL6ck--/v1553238007/ls5l9af2db6dhehxv1kl.png",
        "user_type": 0,
        "money": 2000,
        "comment": "",
        "order_id": "16527831430594931467",
        "activity_type": "",
        "donor": "",
        "corner_mark": ""
    }, {
        "created_at": "2020-07-06T12:25:22.499478+07:00",
        "user_name": "Anonymity",
        "avatar": "https://res.cloudinary.com/dqgl4hkkx/image/authenticated/s--wRvdL6ck--/v1553238007/ls5l9af2db6dhehxv1kl.png",
        "user_type": 0,
        "money": 5000,
        "comment": "",
        "order_id": "16527831430594931249",
        "activity_type": "",
        "donor": "",
        "corner_mark": ""
    }, {
        "created_at": "2020-07-06T12:25:02.916363+07:00",
        "user_name": "Anonymity",
        "avatar": "https://res.cloudinary.com/dqgl4hkkx/image/authenticated/s--wRvdL6ck--/v1553238007/ls5l9af2db6dhehxv1kl.png",
        "user_type": 0,
        "money": 5000,
        "comment": "",
        "order_id": "16527831430594931228",
        "activity_type": "",
        "donor": "",
        "corner_mark": ""
    }, {
        "created_at": "2020-07-06T12:24:52.593608+07:00",
        "user_name": "Anonymity",
        "avatar": "https://res.cloudinary.com/dqgl4hkkx/image/authenticated/s--wRvdL6ck--/v1553238007/ls5l9af2db6dhehxv1kl.png",
        "user_type": 0,
        "money": 20000,
        "comment": "",
        "order_id": "16527831430594931172",
        "activity_type": "",
        "donor": "",
        "corner_mark": ""
    }],
    "_metadata": {
        "created_at_str": "2020-07-06 13:10:02.870142"
    }
}