{
    "code": 0,
    "msg": "",
    "more_info": "",
    "data": {
        "order_no": "",
        "commodity_items": [{
            "sku_key": "siji-COVID-19-A",
            "sku_number": 1,
            "is_print": false
        }],
        "policyholder_user": {
            "birth_date": "1990-04-02",
            "full_name": "Hhumnas Fdamira",
            "mobile_number": "087632999",
            "dd": 20,
            "mm": 4,
            "yyyy": 1990
        },
        "terminal": 0,
        "insured_user": {
            "relationship": 3,
            "birth_date": "1990-04-02",
            "gender": 2,
            "dd": 20,
            "mm": 4,
            "yyyy": 1990
        }
    },
    "_metadata": {

    }
}